EESchema Schematic File Version 4
EELAYER 30 0
EELAYER END
$Descr User 12471 9143
encoding utf-8
Sheet 1 1
Title ""
Date ""
Rev ""
Comp ""
Comment1 ""
Comment2 ""
Comment3 ""
Comment4 ""
$EndDescr
Wire Wire Line
	1800 2000 1800 2200
Wire Wire Line
	1800 2500 1800 2700
Text Label 1800 2500 0    10   ~ 0
GND
Wire Wire Line
	2300 2500 2300 2700
Text Label 2300 2500 0    10   ~ 0
GND
Wire Wire Line
	2800 2500 2800 2700
Text Label 2800 2500 0    10   ~ 0
GND
Wire Wire Line
	3300 2500 3300 2700
Text Label 3300 2500 0    10   ~ 0
GND
Wire Wire Line
	3900 2500 4000 2500
Wire Wire Line
	4000 2700 4000 2500
Connection ~ 4000 2500
Text Label 3900 2500 0    10   ~ 0
GND
Wire Wire Line
	4600 2400 4600 2700
Text Label 4600 2400 0    10   ~ 0
GND
Wire Wire Line
	5600 2500 5700 2500
Wire Wire Line
	5700 2700 5700 2500
Connection ~ 5700 2500
Text Label 5600 2500 0    10   ~ 0
GND
Wire Wire Line
	6300 2400 6300 2700
Text Label 6300 2400 0    10   ~ 0
GND
Wire Wire Line
	7800 2300 7800 2400
Wire Wire Line
	7800 2400 7800 2700
Wire Wire Line
	8000 2300 8000 2400
Wire Wire Line
	8000 2400 7800 2400
Wire Wire Line
	8100 2300 8100 2400
Wire Wire Line
	8100 2400 8000 2400
Connection ~ 7800 2400
Connection ~ 8000 2400
Text Label 7800 2300 0    10   ~ 0
GND
Wire Wire Line
	7500 2500 7500 2700
Text Label 7500 2500 0    10   ~ 0
GND
Wire Wire Line
	9100 2300 9100 2400
Wire Wire Line
	9100 2400 9100 2700
Wire Wire Line
	9300 2300 9300 2400
Wire Wire Line
	9300 2400 9100 2400
Wire Wire Line
	9300 2400 9400 2400
Wire Wire Line
	9400 2400 9400 2300
Connection ~ 9100 2400
Connection ~ 9300 2400
Text Label 9100 2300 0    10   ~ 0
GND
Wire Wire Line
	8800 2500 8800 2700
Text Label 8800 2500 0    10   ~ 0
GND
Wire Wire Line
	10300 2700 10300 2400
Wire Wire Line
	10300 2400 10200 2400
Text Label 10300 2700 0    10   ~ 0
GND
Wire Wire Line
	7350 4350 7190 4350
Text Label 7190 4350 0    70   ~ 0
GND
Wire Wire Line
	8350 4350 8190 4350
Text Label 8190 4350 0    70   ~ 0
GND
Wire Wire Line
	9350 4350 9190 4350
Text Label 9190 4350 0    70   ~ 0
GND
Wire Wire Line
	10350 4350 10190 4350
Text Label 10190 4350 0    70   ~ 0
GND
Wire Wire Line
	1800 6400 1800 5400
Wire Wire Line
	1800 5400 2700 5400
Wire Wire Line
	1800 5400 1800 5300
Wire Wire Line
	1800 5300 2700 5300
Connection ~ 1800 5400
Text Label 1800 6400 0    10   ~ 0
GND
Wire Wire Line
	2300 1600 2300 1300
Wire Wire Line
	2300 1300 1700 1300
Text Label 1700 1300 0    70   ~ 0
LED_2_RED
Wire Wire Line
	5100 5700 5400 5700
Text Label 5400 5700 0    70   ~ 0
LED_2_RED
Wire Wire Line
	2300 2000 2300 2200
Wire Wire Line
	1800 1600 1800 1400
Wire Wire Line
	1800 1400 1700 1400
Text Label 1700 1400 0    70   ~ 0
LED_1_RED
Wire Wire Line
	5100 5000 5400 5000
Text Label 5400 5000 0    70   ~ 0
LED_1_RED
Wire Wire Line
	2800 1600 2800 1200
Wire Wire Line
	2800 1200 1700 1200
Text Label 1700 1200 0    70   ~ 0
LED_3_GREEN
Wire Wire Line
	5100 5600 5400 5600
Text Label 5400 5600 0    70   ~ 0
LED_3_GREEN
Wire Wire Line
	2800 2000 2800 2200
Wire Wire Line
	3300 1600 3300 1100
Wire Wire Line
	3300 1100 1700 1100
Text Label 1700 1100 0    70   ~ 0
LED_4_GREEN
Wire Wire Line
	5100 5500 5400 5500
Text Label 5400 5500 0    70   ~ 0
LED_4_GREEN
Wire Wire Line
	3300 2000 3300 2200
Wire Wire Line
	3900 2100 4000 2100
Wire Wire Line
	4000 2100 4000 1900
Wire Wire Line
	4000 1900 4100 1900
Wire Wire Line
	4000 1700 4000 1900
Connection ~ 4000 2100
Connection ~ 4000 1900
Wire Wire Line
	4000 1100 4000 1300
Text Label 4000 1100 0    10   ~ 0
VCC
Wire Wire Line
	5700 1100 5700 1300
Text Label 5700 1100 0    10   ~ 0
VCC
Wire Wire Line
	7800 1100 7800 1400
Wire Wire Line
	7800 1400 7800 1500
Wire Wire Line
	7500 2200 7500 1400
Wire Wire Line
	7500 1400 7800 1400
Connection ~ 7800 1400
Text Label 7800 1100 0    10   ~ 0
VCC
Wire Wire Line
	9100 1100 9100 1400
Wire Wire Line
	9100 1400 9100 1500
Wire Wire Line
	8800 2200 8800 1400
Wire Wire Line
	8800 1400 9100 1400
Connection ~ 9100 1400
Text Label 9100 1100 0    10   ~ 0
VCC
Wire Wire Line
	10300 1100 10300 2200
Wire Wire Line
	10300 2200 10200 2200
Text Label 10300 1100 0    10   ~ 0
VCC
Wire Wire Line
	10600 1500 10600 1100
Text Label 10600 1500 0    10   ~ 0
VCC
Wire Wire Line
	7350 4250 7200 4250
Text Label 7200 4250 0    70   ~ 0
3V3
Wire Wire Line
	8350 4250 8200 4250
Text Label 8200 4250 0    70   ~ 0
3V3
Wire Wire Line
	9350 4250 9200 4250
Text Label 9200 4250 0    70   ~ 0
3V3
Wire Wire Line
	10350 4250 10200 4250
Text Label 10200 4250 0    70   ~ 0
3V3
Wire Wire Line
	2700 5200 1800 5200
Wire Wire Line
	1800 5200 1800 4100
Text Label 2700 5200 0    10   ~ 0
VCC
Wire Wire Line
	4600 1900 4600 2100
Wire Wire Line
	4500 1900 4600 1900
Wire Wire Line
	4600 1900 4900 1900
Connection ~ 4600 1900
Text Label 4900 1900 0    70   ~ 0
SWITCH_RED
Wire Wire Line
	5100 5800 5400 5800
Text Label 5400 5800 0    70   ~ 0
SWITCH_RED
Wire Wire Line
	5600 2100 5700 2100
Wire Wire Line
	5700 2100 5700 1900
Wire Wire Line
	5700 1900 5800 1900
Wire Wire Line
	5700 1700 5700 1900
Connection ~ 5700 2100
Connection ~ 5700 1900
Wire Wire Line
	6300 1900 6300 2100
Wire Wire Line
	6200 1900 6300 1900
Wire Wire Line
	6300 1900 6600 1900
Connection ~ 6300 1900
Text Label 6600 1900 0    70   ~ 0
SWITCH_BLACK
Wire Wire Line
	5100 5400 5400 5400
Text Label 5400 5400 0    70   ~ 0
SWITCH_BLACK
Wire Wire Line
	8200 1900 8400 1900
Text Label 8400 1900 0    70   ~ 0
POT_1
Wire Wire Line
	2700 5700 2400 5700
Text Label 2400 5700 2    70   ~ 0
POT_1
Wire Wire Line
	9500 1900 9700 1900
Text Label 9700 1900 0    70   ~ 0
POT_2
Wire Wire Line
	2700 5800 2400 5800
Text Label 2400 5800 2    70   ~ 0
POT_2
Wire Wire Line
	10200 2300 10600 2300
Wire Wire Line
	10600 2300 10600 1900
Wire Wire Line
	10600 2300 10900 2300
Connection ~ 10600 2300
Text Label 10900 2300 0    70   ~ 0
ONEWIRE
Wire Wire Line
	5100 5900 5400 5900
Text Label 5400 5900 0    70   ~ 0
ONEWIRE
Wire Wire Line
	7350 4150 7200 4150
Text Label 7200 4150 0    70   ~ 0
SDA
Wire Wire Line
	8350 4150 8200 4150
Text Label 8200 4150 0    70   ~ 0
A3
Wire Wire Line
	5100 4400 5400 4400
Text Label 5400 4400 0    70   ~ 0
SDA
Wire Wire Line
	7350 4050 7200 4050
Text Label 7200 4050 0    70   ~ 0
SCL
Wire Wire Line
	8350 4050 8200 4050
Text Label 8200 4050 0    70   ~ 0
A2
Wire Wire Line
	5100 4300 5400 4300
Text Label 5400 4300 0    70   ~ 0
SCL
Wire Wire Line
	9350 4050 9200 4050
Wire Wire Line
	5100 5100 5400 5100
Wire Wire Line
	9350 4150 9200 4150
Wire Wire Line
	5400 5200 5100 5200
Wire Wire Line
	5100 6100 5400 6100
Text Label 5400 6100 0    70   ~ 0
D1
Wire Wire Line
	10350 4150 10200 4150
Text Label 10200 4150 0    70   ~ 0
D1
Wire Wire Line
	5100 6000 5400 6000
Text Label 5400 6000 0    70   ~ 0
D2
Wire Wire Line
	10350 4050 10200 4050
Text Label 10200 4050 0    70   ~ 0
D2
$Comp
L IotShield_001-eagle-import:R-EU_R1206 R1
U 1 1 DDF01354
P 1800 1800
F 0 "R1" H 1650 1859 59  0000 L BNN
F 1 "1k" H 1650 1670 59  0000 L BNN
F 2 "IotShield_001:R1206" H 1800 1800 50  0001 C CNN
F 3 "" H 1800 1800 50  0001 C CNN
	1    1800 1800
	0    1    1    0   
$EndComp
$Comp
L IotShield_001-eagle-import:R-EU_R1206 R2
U 1 1 0CC8F4E9
P 4300 1900
F 0 "R2" H 4150 1959 59  0000 L BNN
F 1 "1k" H 4150 1770 59  0000 L BNN
F 2 "IotShield_001:R1206" H 4300 1900 50  0001 C CNN
F 3 "" H 4300 1900 50  0001 C CNN
	1    4300 1900
	1    0    0    -1  
$EndComp
$Comp
L IotShield_001-eagle-import:R-EU_R1206 R3
U 1 1 ABABC248
P 4000 1500
F 0 "R3" H 3850 1559 59  0000 L BNN
F 1 "10k" H 3850 1370 59  0000 L BNN
F 2 "IotShield_001:R1206" H 4000 1500 50  0001 C CNN
F 3 "" H 4000 1500 50  0001 C CNN
	1    4000 1500
	0    -1   -1   0   
$EndComp
$Comp
L IotShield_001-eagle-import:R-EU_R1206 R4
U 1 1 37AA4044
P 10600 1700
F 0 "R4" H 10450 1759 59  0000 L BNN
F 1 "4k7" H 10450 1570 59  0000 L BNN
F 2 "IotShield_001:R1206" H 10600 1700 50  0001 C CNN
F 3 "" H 10600 1700 50  0001 C CNN
	1    10600 1700
	0    -1   -1   0   
$EndComp
$Comp
L IotShield_001-eagle-import:C-EUC1206 C1
U 1 1 CA43AFB1
P 4600 2300
F 0 "C1" H 4660 2315 59  0000 L BNN
F 1 "100n" H 4660 2115 59  0000 L BNN
F 2 "IotShield_001:C1206" H 4600 2300 50  0001 C CNN
F 3 "" H 4600 2300 50  0001 C CNN
	1    4600 2300
	-1   0    0    1   
$EndComp
$Comp
L IotShield_001-eagle-import:C-EUC1206 C2
U 1 1 AEC71D01
P 7500 2400
F 0 "C2" H 7560 2415 59  0000 L BNN
F 1 "100n" H 7560 2215 59  0000 L BNN
F 2 "IotShield_001:C1206" H 7500 2400 50  0001 C CNN
F 3 "" H 7500 2400 50  0001 C CNN
	1    7500 2400
	-1   0    0    1   
$EndComp
$Comp
L IotShield_001-eagle-import:VCC #P+02
U 1 1 637B3A6A
P 4000 1000
F 0 "#P+02" H 4000 1000 50  0001 C CNN
F 1 "VCC" V 3900 900 59  0000 L BNN
F 2 "" H 4000 1000 50  0001 C CNN
F 3 "" H 4000 1000 50  0001 C CNN
	1    4000 1000
	1    0    0    -1  
$EndComp
$Comp
L IotShield_001-eagle-import:VCC #P+03
U 1 1 48C2C5DB
P 7800 1000
F 0 "#P+03" H 7800 1000 50  0001 C CNN
F 1 "VCC" V 7700 900 59  0000 L BNN
F 2 "" H 7800 1000 50  0001 C CNN
F 3 "" H 7800 1000 50  0001 C CNN
	1    7800 1000
	1    0    0    -1  
$EndComp
$Comp
L IotShield_001-eagle-import:VCC #P+04
U 1 1 459FCD94
P 10600 1000
F 0 "#P+04" H 10600 1000 50  0001 C CNN
F 1 "VCC" V 10500 900 59  0000 L BNN
F 2 "" H 10600 1000 50  0001 C CNN
F 3 "" H 10600 1000 50  0001 C CNN
	1    10600 1000
	1    0    0    -1  
$EndComp
$Comp
L IotShield_001-eagle-import:GND #GND01
U 1 1 8DA2BB24
P 1800 2800
F 0 "#GND01" H 1800 2800 50  0001 C CNN
F 1 "GND" H 1700 2700 59  0000 L BNN
F 2 "" H 1800 2800 50  0001 C CNN
F 3 "" H 1800 2800 50  0001 C CNN
	1    1800 2800
	1    0    0    -1  
$EndComp
$Comp
L IotShield_001-eagle-import:GND #GND02
U 1 1 4877C9E2
P 4600 2800
F 0 "#GND02" H 4600 2800 50  0001 C CNN
F 1 "GND" H 4500 2700 59  0000 L BNN
F 2 "" H 4600 2800 50  0001 C CNN
F 3 "" H 4600 2800 50  0001 C CNN
	1    4600 2800
	1    0    0    -1  
$EndComp
$Comp
L IotShield_001-eagle-import:GND #GND03
U 1 1 21137572
P 4000 2800
F 0 "#GND03" H 4000 2800 50  0001 C CNN
F 1 "GND" H 3900 2700 59  0000 L BNN
F 2 "" H 4000 2800 50  0001 C CNN
F 3 "" H 4000 2800 50  0001 C CNN
	1    4000 2800
	1    0    0    -1  
$EndComp
$Comp
L IotShield_001-eagle-import:GND #GND04
U 1 1 12C122FD
P 7800 2800
F 0 "#GND04" H 7800 2800 50  0001 C CNN
F 1 "GND" H 7700 2700 59  0000 L BNN
F 2 "" H 7800 2800 50  0001 C CNN
F 3 "" H 7800 2800 50  0001 C CNN
	1    7800 2800
	1    0    0    -1  
$EndComp
$Comp
L IotShield_001-eagle-import:GND #GND05
U 1 1 5B6A58CA
P 7500 2800
F 0 "#GND05" H 7500 2800 50  0001 C CNN
F 1 "GND" H 7400 2700 59  0000 L BNN
F 2 "" H 7500 2800 50  0001 C CNN
F 3 "" H 7500 2800 50  0001 C CNN
	1    7500 2800
	1    0    0    -1  
$EndComp
$Comp
L IotShield_001-eagle-import:GND #GND06
U 1 1 F6847280
P 10300 2800
F 0 "#GND06" H 10300 2800 50  0001 C CNN
F 1 "GND" H 10200 2700 59  0000 L BNN
F 2 "" H 10300 2800 50  0001 C CNN
F 3 "" H 10300 2800 50  0001 C CNN
	1    10300 2800
	1    0    0    -1  
$EndComp
$Comp
L IotShield_001-eagle-import:LEDSML1206 LED1
U 1 1 E63B9115
P 1800 2300
F 0 "LED1" V 1940 2120 59  0000 L BNN
F 1 "RED" V 2025 2120 59  0000 L BNN
F 2 "IotShield_001:SML1206" H 1800 2300 50  0001 C CNN
F 3 "" H 1800 2300 50  0001 C CNN
	1    1800 2300
	1    0    0    -1  
$EndComp
$Comp
L IotShield_001-eagle-import:R-EU_R1206 R5
U 1 1 4373A00B
P 2300 1800
F 0 "R5" H 2150 1859 59  0000 L BNN
F 1 "1k" H 2150 1670 59  0000 L BNN
F 2 "IotShield_001:R1206" H 2300 1800 50  0001 C CNN
F 3 "" H 2300 1800 50  0001 C CNN
	1    2300 1800
	0    1    1    0   
$EndComp
$Comp
L IotShield_001-eagle-import:GND #GND07
U 1 1 C2693486
P 2300 2800
F 0 "#GND07" H 2300 2800 50  0001 C CNN
F 1 "GND" H 2200 2700 59  0000 L BNN
F 2 "" H 2300 2800 50  0001 C CNN
F 3 "" H 2300 2800 50  0001 C CNN
	1    2300 2800
	1    0    0    -1  
$EndComp
$Comp
L IotShield_001-eagle-import:LEDSML1206 LED2
U 1 1 B9E5326E
P 2300 2300
F 0 "LED2" V 2440 2120 59  0000 L BNN
F 1 "RED" V 2525 2120 59  0000 L BNN
F 2 "IotShield_001:SML1206" H 2300 2300 50  0001 C CNN
F 3 "" H 2300 2300 50  0001 C CNN
	1    2300 2300
	1    0    0    -1  
$EndComp
$Comp
L IotShield_001-eagle-import:R-EU_R1206 R6
U 1 1 9270C831
P 2800 1800
F 0 "R6" H 2650 1859 59  0000 L BNN
F 1 "1k" H 2650 1670 59  0000 L BNN
F 2 "IotShield_001:R1206" H 2800 1800 50  0001 C CNN
F 3 "" H 2800 1800 50  0001 C CNN
	1    2800 1800
	0    1    1    0   
$EndComp
$Comp
L IotShield_001-eagle-import:GND #GND08
U 1 1 E3161DBF
P 2800 2800
F 0 "#GND08" H 2800 2800 50  0001 C CNN
F 1 "GND" H 2700 2700 59  0000 L BNN
F 2 "" H 2800 2800 50  0001 C CNN
F 3 "" H 2800 2800 50  0001 C CNN
	1    2800 2800
	1    0    0    -1  
$EndComp
$Comp
L IotShield_001-eagle-import:LEDSML1206 LED3
U 1 1 602B6D8A
P 2800 2300
F 0 "LED3" V 2940 2120 59  0000 L BNN
F 1 "GREEN" V 3025 2120 59  0000 L BNN
F 2 "IotShield_001:SML1206" H 2800 2300 50  0001 C CNN
F 3 "" H 2800 2300 50  0001 C CNN
	1    2800 2300
	1    0    0    -1  
$EndComp
$Comp
L IotShield_001-eagle-import:R-EU_R1206 R7
U 1 1 6FED3E2F
P 3300 1800
F 0 "R7" H 3150 1859 59  0000 L BNN
F 1 "1k" H 3150 1670 59  0000 L BNN
F 2 "IotShield_001:R1206" H 3300 1800 50  0001 C CNN
F 3 "" H 3300 1800 50  0001 C CNN
	1    3300 1800
	0    1    1    0   
$EndComp
$Comp
L IotShield_001-eagle-import:GND #GND09
U 1 1 FD0A31A1
P 3300 2800
F 0 "#GND09" H 3300 2800 50  0001 C CNN
F 1 "GND" H 3200 2700 59  0000 L BNN
F 2 "" H 3300 2800 50  0001 C CNN
F 3 "" H 3300 2800 50  0001 C CNN
	1    3300 2800
	1    0    0    -1  
$EndComp
$Comp
L IotShield_001-eagle-import:LEDSML1206 LED4
U 1 1 10678902
P 3300 2300
F 0 "LED4" V 3440 2120 59  0000 L BNN
F 1 "GREEN" V 3525 2120 59  0000 L BNN
F 2 "IotShield_001:SML1206" H 3300 2300 50  0001 C CNN
F 3 "" H 3300 2300 50  0001 C CNN
	1    3300 2300
	1    0    0    -1  
$EndComp
$Comp
L IotShield_001-eagle-import:D6R_SPST_SWITCH SW1
U 1 1 42295961
P 3900 2300
F 0 "SW1" H 3900 2490 70  0000 C BNN
F 1 "D6R_RED" H 3900 2190 70  0000 C TNN
F 2 "IotShield_001:D6R_SPST_SWITCH" H 3900 2300 50  0001 C CNN
F 3 "" H 3900 2300 50  0001 C CNN
	1    3900 2300
	0    -1   -1   0   
$EndComp
$Comp
L IotShield_001-eagle-import:R-EU_R1206 R8
U 1 1 B2A0FD76
P 6000 1900
F 0 "R8" H 5850 1959 59  0000 L BNN
F 1 "1k" H 5850 1770 59  0000 L BNN
F 2 "IotShield_001:R1206" H 6000 1900 50  0001 C CNN
F 3 "" H 6000 1900 50  0001 C CNN
	1    6000 1900
	1    0    0    -1  
$EndComp
$Comp
L IotShield_001-eagle-import:R-EU_R1206 R9
U 1 1 22FF1DF3
P 5700 1500
F 0 "R9" H 5550 1559 59  0000 L BNN
F 1 "10k" H 5550 1370 59  0000 L BNN
F 2 "IotShield_001:R1206" H 5700 1500 50  0001 C CNN
F 3 "" H 5700 1500 50  0001 C CNN
	1    5700 1500
	0    -1   -1   0   
$EndComp
$Comp
L IotShield_001-eagle-import:C-EUC1206 C3
U 1 1 EE7D9419
P 6300 2300
F 0 "C3" H 6360 2315 59  0000 L BNN
F 1 "100n" H 6360 2115 59  0000 L BNN
F 2 "IotShield_001:C1206" H 6300 2300 50  0001 C CNN
F 3 "" H 6300 2300 50  0001 C CNN
	1    6300 2300
	-1   0    0    1   
$EndComp
$Comp
L IotShield_001-eagle-import:VCC #P+01
U 1 1 6A081B6E
P 5700 1000
F 0 "#P+01" H 5700 1000 50  0001 C CNN
F 1 "VCC" V 5600 900 59  0000 L BNN
F 2 "" H 5700 1000 50  0001 C CNN
F 3 "" H 5700 1000 50  0001 C CNN
	1    5700 1000
	1    0    0    -1  
$EndComp
$Comp
L IotShield_001-eagle-import:GND #GND010
U 1 1 0087CD10
P 6300 2800
F 0 "#GND010" H 6300 2800 50  0001 C CNN
F 1 "GND" H 6200 2700 59  0000 L BNN
F 2 "" H 6300 2800 50  0001 C CNN
F 3 "" H 6300 2800 50  0001 C CNN
	1    6300 2800
	1    0    0    -1  
$EndComp
$Comp
L IotShield_001-eagle-import:GND #GND011
U 1 1 5518330F
P 5700 2800
F 0 "#GND011" H 5700 2800 50  0001 C CNN
F 1 "GND" H 5600 2700 59  0000 L BNN
F 2 "" H 5700 2800 50  0001 C CNN
F 3 "" H 5700 2800 50  0001 C CNN
	1    5700 2800
	1    0    0    -1  
$EndComp
$Comp
L IotShield_001-eagle-import:D6R_SPST_SWITCH SW2
U 1 1 1A913A9D
P 5600 2300
F 0 "SW2" H 5600 2490 70  0000 C BNN
F 1 "D6R_BLACK" H 5600 2190 70  0000 C TNN
F 2 "IotShield_001:D6R_SPST_SWITCH" H 5600 2300 50  0001 C CNN
F 3 "" H 5600 2300 50  0001 C CNN
	1    5600 2300
	0    -1   -1   0   
$EndComp
$Comp
L IotShield_001-eagle-import:RK09_POTMETER P1
U 1 1 2F51293A
P 7800 1900
F 0 "P1" V 7600 1900 42  0000 C BNN
F 1 "10k" V 7700 1900 42  0000 C BNN
F 2 "IotShield_001:RK09_POTMETER" H 7800 1900 50  0001 C CNN
F 3 "" H 7800 1900 50  0001 C CNN
	1    7800 1900
	1    0    0    -1  
$EndComp
$Comp
L IotShield_001-eagle-import:C-EUC1206 C4
U 1 1 65EC1BA2
P 8800 2400
F 0 "C4" H 8860 2415 59  0000 L BNN
F 1 "100n" H 8860 2215 59  0000 L BNN
F 2 "IotShield_001:C1206" H 8800 2400 50  0001 C CNN
F 3 "" H 8800 2400 50  0001 C CNN
	1    8800 2400
	-1   0    0    1   
$EndComp
$Comp
L IotShield_001-eagle-import:VCC #P+05
U 1 1 57F4DC09
P 9100 1000
F 0 "#P+05" H 9100 1000 50  0001 C CNN
F 1 "VCC" V 9000 900 59  0000 L BNN
F 2 "" H 9100 1000 50  0001 C CNN
F 3 "" H 9100 1000 50  0001 C CNN
	1    9100 1000
	1    0    0    -1  
$EndComp
$Comp
L IotShield_001-eagle-import:GND #GND012
U 1 1 8C4C494A
P 9100 2800
F 0 "#GND012" H 9100 2800 50  0001 C CNN
F 1 "GND" H 9000 2700 59  0000 L BNN
F 2 "" H 9100 2800 50  0001 C CNN
F 3 "" H 9100 2800 50  0001 C CNN
	1    9100 2800
	1    0    0    -1  
$EndComp
$Comp
L IotShield_001-eagle-import:GND #GND013
U 1 1 85B66688
P 8800 2800
F 0 "#GND013" H 8800 2800 50  0001 C CNN
F 1 "GND" H 8700 2700 59  0000 L BNN
F 2 "" H 8800 2800 50  0001 C CNN
F 3 "" H 8800 2800 50  0001 C CNN
	1    8800 2800
	1    0    0    -1  
$EndComp
$Comp
L IotShield_001-eagle-import:RK09_POTMETER P2
U 1 1 3108473A
P 9100 1900
F 0 "P2" V 8900 1900 42  0000 C BNN
F 1 "10k" V 9000 1900 42  0000 C BNN
F 2 "IotShield_001:RK09_POTMETER" H 9100 1900 50  0001 C CNN
F 3 "" H 9100 1900 50  0001 C CNN
	1    9100 1900
	1    0    0    -1  
$EndComp
$Comp
L IotShield_001-eagle-import:DS1820TO92 U$1
U 1 1 89E33A62
P 10000 2300
F 0 "U$1" H 10000 2300 50  0001 C CNN
F 1 "DS1820TO92" H 10000 2300 50  0001 C CNN
F 2 "IotShield_001:DS1820" H 10000 2300 50  0001 C CNN
F 3 "" H 10000 2300 50  0001 C CNN
	1    10000 2300
	0    -1   -1   0   
$EndComp
$Comp
L IotShield_001-eagle-import:VCC #P+06
U 1 1 4B6CF0C8
P 10300 1000
F 0 "#P+06" H 10300 1000 50  0001 C CNN
F 1 "VCC" V 10200 900 59  0000 L BNN
F 2 "" H 10300 1000 50  0001 C CNN
F 3 "" H 10300 1000 50  0001 C CNN
	1    10300 1000
	1    0    0    -1  
$EndComp
$Comp
L IotShield_001-eagle-import:GROVE-CONNECTOR-DIP(4P-2.0) J1
U 1 1 916C6C62
P 10500 4200
F 0 "J1" H 10250 4450 42  0000 L BNN
F 1 "DIG" H 10500 4450 42  0000 L BNN
F 2 "IotShield_001:HW4-2.0" H 10500 4200 50  0001 C CNN
F 3 "" H 10500 4200 50  0001 C CNN
	1    10500 4200
	1    0    0    -1  
$EndComp
$Comp
L IotShield_001-eagle-import:GROVE-CONNECTOR-DIP(4P-2.0) J2
U 1 1 6B63C942
P 9500 4200
F 0 "J2" H 9250 4450 42  0000 L BNN
F 1 "UART" H 9500 4450 42  0000 L BNN
F 2 "IotShield_001:HW4-2.0" H 9500 4200 50  0001 C CNN
F 3 "" H 9500 4200 50  0001 C CNN
	1    9500 4200
	1    0    0    -1  
$EndComp
$Comp
L IotShield_001-eagle-import:GROVE-CONNECTOR-DIP(4P-2.0) J3
U 1 1 17034675
P 8500 4200
F 0 "J3" H 8250 4450 42  0000 L BNN
F 1 "I2C" H 8500 4450 42  0000 L BNN
F 2 "IotShield_001:HW4-2.0" H 8500 4200 50  0001 C CNN
F 3 "" H 8500 4200 50  0001 C CNN
	1    8500 4200
	1    0    0    -1  
$EndComp
$Comp
L IotShield_001-eagle-import:GROVE-CONNECTOR-DIP(4P-2.0) J4
U 1 1 5B1A1A87
P 7500 4200
F 0 "J4" H 7250 4450 42  0000 L BNN
F 1 "I2C" H 7500 4450 42  0000 L BNN
F 2 "IotShield_001:HW4-2.0" H 7500 4200 50  0001 C CNN
F 3 "" H 7500 4200 50  0001 C CNN
	1    7500 4200
	1    0    0    -1  
$EndComp
$Comp
L IotShield_001-eagle-import:GND #GND014
U 1 1 B9C9B342
P 1800 6500
F 0 "#GND014" H 1800 6500 50  0001 C CNN
F 1 "GND" H 1700 6400 59  0000 L BNN
F 2 "" H 1800 6500 50  0001 C CNN
F 3 "" H 1800 6500 50  0001 C CNN
	1    1800 6500
	1    0    0    -1  
$EndComp
$Comp
L IotShield_001-eagle-import:VCC #P+07
U 1 1 FAFE20BD
P 1800 4000
F 0 "#P+07" H 1800 4000 50  0001 C CNN
F 1 "VCC" V 1700 3900 59  0000 L BNN
F 2 "" H 1800 4000 50  0001 C CNN
F 3 "" H 1800 4000 50  0001 C CNN
	1    1800 4000
	1    0    0    -1  
$EndComp
$Comp
L IotShield_001-eagle-import:ARDUINOR3-BPLACE U1
U 1 1 94FABF20
P 3900 5300
F 0 "U1" H 3900 5300 50  0001 C CNN
F 1 "ARDUINOR3-BPLACE" H 3900 5300 50  0001 C CNN
F 2 "IotShield_001:ARDUINOR3-BPLACE" H 3900 5300 50  0001 C CNN
F 3 "" H 3900 5300 50  0001 C CNN
	1    3900 5300
	0    1    1    0   
$EndComp
Text Notes 2200 800  0    59   ~ 0
LED's
Text Notes 4600 800  0    59   ~ 0
SWITCHES
Text Notes 8200 800  0    59   ~ 0
POTMETERS
Text Notes 9900 800  0    59   ~ 0
DALLAS ONE-WIRE
Text Notes 8800 3600 0    59   ~ 0
GROVE
Text GLabel 2700 5100 0    10   BiDi ~ 0
3V
Text GLabel 5100 4600 0    10   BiDi ~ 0
GND
Text GLabel 2700 5500 0    10   BiDi ~ 0
VIN
Wire Wire Line
	2700 5100 1950 5100
Text Label 1950 5100 0    50   ~ 0
3V3
Text Notes 5650 5200 0    59   ~ 0
Compatible with softserial on Arduino Leonardo\nwhere 8 is RX while 9 is TX,
Wire Wire Line
	2700 5900 2400 5900
Wire Wire Line
	2400 6000 2700 6000
Text Label 2400 5900 2    50   ~ 0
A2
Text Label 2400 6000 2    50   ~ 0
A3
Text Label 5400 5200 0    70   ~ 0
RX
Text Label 9200 4150 0    70   ~ 0
TX
Text Label 9200 4050 0    70   ~ 0
RX
Text Label 5400 5100 0    70   ~ 0
TX
$EndSCHEMATC
